cereal.utf8.md
…
cm = as.data.frame(cormatrix)
cm[cm < 0.5 | cm ==1] = ""
as_tibble(cm)

## # A tibble: 25 x 25
##    Filling Natural Fibre Sweet Easy  Salt  Satisfying Energy Fun   Kids 
##    <chr>   <chr>   <chr> <chr> <chr> <chr> <chr>      <chr>  <chr> <chr>
##  1 ""      0.5396 0.55 ""    ""    ""    0.6541516 0.636 ""    ""   
##  2 0.5396 ""      0.65 ""    ""    ""    ""         ""     ""    ""   
##  3 0.5520 0.6522 ""    ""    ""    ""    ""         0.503 ""    ""   
##  4 ""      ""      ""    ""    ""    ""    ""         ""     ""    ""   
##  5 ""      ""      ""    ""    ""    ""    ""         ""     ""    ""   
##  6 ""      ""      ""    ""    ""    ""    ""         ""     ""    ""   
##  7 0.6541 ""      ""    ""    ""    ""    ""         0.603 ""    ""   
##  8 0.6367 ""      0.50 ""    ""    ""    0.6034328 ""     ""    ""   
##  9 ""      ""      ""    ""    ""    ""    ""         ""     ""    ""   
## 10 ""      ""      ""    ""    ""    ""    ""         ""     ""    ""   
## #  with 15 more rows, and 15 more variables: Soggy <chr>,
## #   Economical <chr>, Health <chr>, Family <chr>, Calories <chr>,
## #   Plain <chr>, Crisp <chr>, Regular <chr>, Sugar <chr>, Fruit <chr>,
## #   Process <chr>, Quality <chr>, Treat <chr>, Boring <chr>,
## #   Nutritious <chr>
…
